\relax 
\@writefile{lot}{\contentsline {table}{\numberline {I}{\ignorespaces ROLE ASSIGNMENTS (TILL THE MIDDLE OF THE TERM)}}{1}}
\newlabel{table_example}{{I}{1}}
\@writefile{toc}{\contentsline {section}{\numberline {I}Introduction}{1}}
\@writefile{toc}{\contentsline {subsection}{\numberline {\unhbox \voidb@x \hbox {I-A}}Motivation}{1}}
\@writefile{toc}{\contentsline {subsection}{\numberline {\unhbox \voidb@x \hbox {I-B}}Problem Statement}{1}}
\@writefile{toc}{\contentsline {subsection}{\numberline {\unhbox \voidb@x \hbox {I-C}}Research on any related software}{1}}
\@writefile{toc}{\contentsline {section}{\numberline {II}Requirement}{2}}
\@writefile{toc}{\contentsline {subsection}{\numberline {\unhbox \voidb@x \hbox {II-A}}Program running environment}{2}}
\@writefile{toc}{\contentsline {subsection}{\numberline {\unhbox \voidb@x \hbox {II-B}}Program composition}{2}}
\@writefile{toc}{\contentsline {subsubsection}{\numberline {\unhbox \voidb@x \hbox {II-B}1}Execution}{2}}
\@writefile{toc}{\contentsline {subsubsection}{\numberline {\unhbox \voidb@x \hbox {II-B}2}Closing}{2}}
\@writefile{toc}{\contentsline {subsubsection}{\numberline {\unhbox \voidb@x \hbox {II-B}3}Display layout}{2}}
\@writefile{toc}{\contentsline {subsection}{\numberline {\unhbox \voidb@x \hbox {II-C}}Setting}{2}}
\@writefile{toc}{\contentsline {subsection}{\numberline {\unhbox \voidb@x \hbox {II-D}}Device scope}{2}}
\@writefile{toc}{\contentsline {subsection}{\numberline {\unhbox \voidb@x \hbox {II-E}}Functional scope}{2}}
\@writefile{toc}{\contentsline {subsubsection}{\numberline {\unhbox \voidb@x \hbox {II-E}1}Channel}{2}}
\@writefile{toc}{\contentsline {subsubsection}{\numberline {\unhbox \voidb@x \hbox {II-E}2}Volume}{2}}
\@writefile{toc}{\contentsline {subsubsection}{\numberline {\unhbox \voidb@x \hbox {II-E}3}Mute}{2}}
\@writefile{toc}{\contentsline {subsection}{\numberline {\unhbox \voidb@x \hbox {II-F}}Environment}{2}}
\@writefile{toc}{\contentsline {subsubsection}{\numberline {\unhbox \voidb@x \hbox {II-F}1}User position}{2}}
\@writefile{toc}{\contentsline {subsubsection}{\numberline {\unhbox \voidb@x \hbox {II-F}2}Device connection}{2}}
\@writefile{toc}{\contentsline {subsection}{\numberline {\unhbox \voidb@x \hbox {II-G}}physical control free}{2}}
\@writefile{toc}{\contentsline {subsection}{\numberline {\unhbox \voidb@x \hbox {II-H}}Hand Recognition}{2}}
\@writefile{toc}{\contentsline {subsection}{\numberline {\unhbox \voidb@x \hbox {II-I}}Gesture command}{3}}
\@writefile{toc}{\contentsline {subsubsection}{\numberline {\unhbox \voidb@x \hbox {II-I}1}Gesture stop signal recognition}{3}}
\@writefile{toc}{\contentsline {subsubsection}{\numberline {\unhbox \voidb@x \hbox {II-I}2}Gesture recognition}{3}}
\@writefile{toc}{\contentsline {subsection}{\numberline {\unhbox \voidb@x \hbox {II-J}}Connecting gesture to function}{3}}
\@writefile{toc}{\contentsline {subsection}{\numberline {\unhbox \voidb@x \hbox {II-K}}remote control using web}{3}}
\@writefile{toc}{\contentsline {subsection}{\numberline {\unhbox \voidb@x \hbox {II-L}}Execution}{3}}
\@writefile{toc}{\contentsline {subsection}{\numberline {\unhbox \voidb@x \hbox {II-M}}Energy consumption minimalization}{3}}
\@writefile{toc}{\contentsline {subsection}{\numberline {\unhbox \voidb@x \hbox {II-N}}Independence of original remote controller}{3}}
\@writefile{toc}{\contentsline {section}{\numberline {III}Development Environment}{3}}
\@writefile{toc}{\contentsline {subsection}{\numberline {\unhbox \voidb@x \hbox {III-A}}Choice of software development platform}{3}}
\@writefile{toc}{\contentsline {subsubsection}{\numberline {\unhbox \voidb@x \hbox {III-A}1}Development Platform}{3}}
\@writefile{toc}{\contentsline {subsubsection}{\numberline {\unhbox \voidb@x \hbox {III-A}2}Programming language}{3}}
\@writefile{toc}{\contentsline {subsubsection}{\numberline {\unhbox \voidb@x \hbox {III-A}3}Cost estimation}{3}}
\@writefile{lot}{\contentsline {table}{\numberline {II}{\ignorespaces Computer Resources}}{3}}
\newlabel{table_example2}{{II}{3}}
\@writefile{toc}{\contentsline {subsection}{\numberline {\unhbox \voidb@x \hbox {III-B}}Software in use}{3}}
\@writefile{toc}{\contentsline {subsubsection}{\numberline {\unhbox \voidb@x \hbox {III-B}1}OpenCV}{3}}
\@writefile{toc}{\contentsline {subsubsection}{\numberline {\unhbox \voidb@x \hbox {III-B}2}Kinetic SDK Dynamic Warping(DTW) Gesture Recognition}{4}}
\@writefile{lof}{\contentsline {figure}{\numberline {1}{\ignorespaces DTWcode}}{4}}
\@writefile{toc}{\contentsline {subsubsection}{\numberline {\unhbox \voidb@x \hbox {III-B}3}Remote control on PC}{4}}
\@writefile{toc}{\contentsline {subsubsection}{\numberline {\unhbox \voidb@x \hbox {III-B}4}Microsoft Visual Studio Community 2013}{4}}
\@writefile{toc}{\contentsline {subsection}{\numberline {\unhbox \voidb@x \hbox {III-C}}Task Distribution}{4}}
\@writefile{toc}{\contentsline {section}{\numberline {IV}Specification}{4}}
\@writefile{toc}{\contentsline {subsection}{\numberline {\unhbox \voidb@x \hbox {IV-A}}Program Running Environment}{4}}
\@writefile{toc}{\contentsline {subsection}{\numberline {\unhbox \voidb@x \hbox {IV-B}}Display}{4}}
\@writefile{lof}{\contentsline {figure}{\numberline {2}{\ignorespaces Main Display}}{4}}
\newlabel{fig1}{{2}{4}}
\@writefile{lof}{\contentsline {figure}{\numberline {3}{\ignorespaces Support}}{5}}
\newlabel{fig4}{{3}{5}}
\@writefile{toc}{\contentsline {subsection}{\numberline {\unhbox \voidb@x \hbox {IV-C}}Device Scope}{5}}
\@writefile{toc}{\contentsline {subsection}{\numberline {\unhbox \voidb@x \hbox {IV-D}}Environment }{5}}
\@writefile{toc}{\contentsline {subsubsection}{\numberline {\unhbox \voidb@x \hbox {IV-D}1}Distance}{5}}
\@writefile{toc}{\contentsline {subsubsection}{\numberline {\unhbox \voidb@x \hbox {IV-D}2}Lighting}{5}}
\@writefile{toc}{\contentsline {subsubsection}{\numberline {\unhbox \voidb@x \hbox {IV-D}3}Device connection}{5}}
\@writefile{toc}{\contentsline {subsection}{\numberline {\unhbox \voidb@x \hbox {IV-E}}Function}{5}}
\@writefile{toc}{\contentsline {subsubsection}{\numberline {\unhbox \voidb@x \hbox {IV-E}1}Attribute}{5}}
\@writefile{toc}{\contentsline {subsubsection}{\numberline {\unhbox \voidb@x \hbox {IV-E}2}Initialization}{5}}
\@writefile{toc}{\contentsline {subsubsection}{\numberline {\unhbox \voidb@x \hbox {IV-E}3}Mute function}{5}}
\@writefile{toc}{\contentsline {subsubsection}{\numberline {\unhbox \voidb@x \hbox {IV-E}4}Channel function}{6}}
\@writefile{toc}{\contentsline {subsubsection}{\numberline {\unhbox \voidb@x \hbox {IV-E}5}Volume function}{6}}
\@writefile{toc}{\contentsline {subsection}{\numberline {\unhbox \voidb@x \hbox {IV-F}}Hand recognition}{6}}
\@writefile{toc}{\contentsline {subsubsection}{\numberline {\unhbox \voidb@x \hbox {IV-F}1}Detecting Background}{6}}
\@writefile{lof}{\contentsline {figure}{\numberline {4}{\ignorespaces openCV}}{6}}
\@writefile{toc}{\contentsline {subsubsection}{\numberline {\unhbox \voidb@x \hbox {IV-F}2}Background Subtraction}{6}}
\@writefile{toc}{\contentsline {subsubsection}{\numberline {\unhbox \voidb@x \hbox {IV-F}3}Contour Extraction}{6}}
\@writefile{lof}{\contentsline {figure}{\numberline {5}{\ignorespaces openCV 2}}{7}}
\@writefile{toc}{\contentsline {subsubsection}{\numberline {\unhbox \voidb@x \hbox {IV-F}4}Convex Hull and Defects}{7}}
\@writefile{toc}{\contentsline {subsubsection}{\numberline {\unhbox \voidb@x \hbox {IV-F}5}Tracking and Finger Detection}{7}}
\@writefile{toc}{\contentsline {subsection}{\numberline {\unhbox \voidb@x \hbox {IV-G}}Gesture Command}{7}}
\@writefile{toc}{\contentsline {subsubsection}{\numberline {\unhbox \voidb@x \hbox {IV-G}1}Channel}{7}}
\@writefile{lof}{\contentsline {figure}{\numberline {6}{\ignorespaces Gesture to channel up}}{7}}
\newlabel{Gesture fig.1}{{6}{7}}
\@writefile{lof}{\contentsline {figure}{\numberline {7}{\ignorespaces Gesture to channel down}}{7}}
\newlabel{Gesture fig.2}{{7}{7}}
\@writefile{toc}{\contentsline {subsubsection}{\numberline {\unhbox \voidb@x \hbox {IV-G}2}Volume}{7}}
\@writefile{lof}{\contentsline {figure}{\numberline {8}{\ignorespaces Gesture to volume up}}{8}}
\newlabel{Gesture fig.3}{{8}{8}}
\@writefile{lof}{\contentsline {figure}{\numberline {9}{\ignorespaces Gesture to volume down}}{8}}
\newlabel{Gesture fig.4}{{9}{8}}
\@writefile{toc}{\contentsline {subsubsection}{\numberline {\unhbox \voidb@x \hbox {IV-G}3}Mute}{8}}
\@writefile{lof}{\contentsline {figure}{\numberline {10}{\ignorespaces Gesture to mute}}{8}}
\newlabel{Gesture fig.5}{{10}{8}}
\@writefile{toc}{\contentsline {subsection}{\numberline {\unhbox \voidb@x \hbox {IV-H}}Remote Control by using web}{8}}
\@writefile{toc}{\contentsline {subsection}{\numberline {\unhbox \voidb@x \hbox {IV-I}}Energy consumption minimization}{8}}
\@writefile{toc}{\contentsline {subsubsection}{\numberline {\unhbox \voidb@x \hbox {IV-I}1}resolution}{8}}
\@writefile{toc}{\contentsline {subsubsection}{\numberline {\unhbox \voidb@x \hbox {IV-I}2}Using wifi}{9}}
\@writefile{toc}{\contentsline {subsubsection}{\numberline {\unhbox \voidb@x \hbox {IV-I}3}Turning the program off when TV is turned off}{9}}
\@writefile{toc}{\contentsline {section}{\numberline {V}Architecture Design $&$ Implementation}{9}}
\@writefile{toc}{\contentsline {subsection}{\numberline {\unhbox \voidb@x \hbox {V-A}}Overall Architecture}{9}}
\@writefile{lof}{\contentsline {figure}{\numberline {11}{\ignorespaces Overall Architecture}}{9}}
\newlabel{Overall Architecture}{{11}{9}}
\@writefile{lot}{\contentsline {table}{\numberline {III}{\ignorespaces Directory Organization}}{10}}
\newlabel{table_example}{{III}{10}}
\@writefile{toc}{\contentsline {subsection}{\numberline {\unhbox \voidb@x \hbox {V-B}}Directory organization}{10}}
\@writefile{toc}{\contentsline {subsection}{\numberline {\unhbox \voidb@x \hbox {V-C}}Module1: GestureDetection}{10}}
\@writefile{lof}{\contentsline {figure}{\numberline {12}{\ignorespaces Module1: Gesture Detection}}{10}}
\newlabel{Module1: Gesture Detection}{{12}{10}}
\@writefile{toc}{\contentsline {subsection}{\numberline {\unhbox \voidb@x \hbox {V-D}}Module2: GestureRecognition}{10}}
\@writefile{lof}{\contentsline {figure}{\numberline {13}{\ignorespaces Module2: Gesture Recognition}}{10}}
\newlabel{Module2: Gesture Recognition}{{13}{10}}
\@writefile{toc}{\contentsline {subsection}{\numberline {\unhbox \voidb@x \hbox {V-E}}Module3: WebSocket}{10}}
\@writefile{lof}{\contentsline {figure}{\numberline {14}{\ignorespaces Module3: Web Socket}}{11}}
\newlabel{Module3: Web Socket}{{14}{11}}
\@writefile{toc}{\contentsline {subsection}{\numberline {\unhbox \voidb@x \hbox {V-F}}Module4: Remote Control}{11}}
\@writefile{lof}{\contentsline {figure}{\numberline {15}{\ignorespaces RemoteControl/Server}}{11}}
\newlabel{Server}{{15}{11}}
\@writefile{toc}{\contentsline {subsubsection}{\numberline {\unhbox \voidb@x \hbox {V-F}1}Server}{11}}
\@writefile{toc}{\contentsline {subsubsection}{\numberline {\unhbox \voidb@x \hbox {V-F}2}API}{11}}
\@writefile{lof}{\contentsline {figure}{\numberline {16}{\ignorespaces RemoteControl/API}}{11}}
\newlabel{API}{{16}{11}}
\@writefile{toc}{\contentsline {subsubsection}{\numberline {\unhbox \voidb@x \hbox {V-F}3}Application}{11}}
\@writefile{lof}{\contentsline {figure}{\numberline {17}{\ignorespaces RemoteControl/App}}{12}}
\newlabel{App}{{17}{12}}
\@writefile{toc}{\contentsline {subsubsection}{\numberline {\unhbox \voidb@x \hbox {V-F}4}Proxy}{12}}
\@writefile{lof}{\contentsline {figure}{\numberline {18}{\ignorespaces RemoteControl/Proxy}}{12}}
\newlabel{Proxy}{{18}{12}}
\@writefile{toc}{\contentsline {section}{\numberline {VI}Use Cases}{12}}
\@writefile{toc}{\contentsline {subsection}{\numberline {\unhbox \voidb@x \hbox {VI-A}}Use Case Overview}{12}}
\@writefile{toc}{\contentsline {subsection}{\numberline {\unhbox \voidb@x \hbox {VI-B}}Taking motion}{12}}
\@writefile{lot}{\contentsline {table}{\numberline {IV}{\ignorespaces usecase 1}}{12}}
\newlabel{table_example}{{IV}{12}}
\@writefile{toc}{\contentsline {subsection}{\numberline {\unhbox \voidb@x \hbox {VI-C}}Getting support}{12}}
\@writefile{lot}{\contentsline {table}{\numberline {V}{\ignorespaces usecase 2}}{12}}
\newlabel{table_example}{{V}{12}}
\@writefile{toc}{\contentsline {subsection}{\numberline {\unhbox \voidb@x \hbox {VI-D}}Getting help information}{12}}
\@writefile{lot}{\contentsline {table}{\numberline {VI}{\ignorespaces usecase 3}}{12}}
\newlabel{table_example}{{VI}{12}}
\@writefile{toc}{\contentsline {subsection}{\numberline {\unhbox \voidb@x \hbox {VI-E}}Detecting hand}{13}}
\@writefile{lot}{\contentsline {table}{\numberline {VII}{\ignorespaces usecase 4}}{13}}
\newlabel{table_example}{{VII}{13}}
\@writefile{toc}{\contentsline {subsection}{\numberline {\unhbox \voidb@x \hbox {VI-F}}Recognizing hand gesture}{13}}
\@writefile{lot}{\contentsline {table}{\numberline {VIII}{\ignorespaces usecase 5}}{13}}
\newlabel{table_example}{{VIII}{13}}
\@writefile{toc}{\contentsline {subsection}{\numberline {\unhbox \voidb@x \hbox {VI-G}}Linking camera}{13}}
\@writefile{lot}{\contentsline {table}{\numberline {IX}{\ignorespaces usecase 6}}{13}}
\newlabel{table_example}{{IX}{13}}
\@writefile{toc}{\contentsline {subsection}{\numberline {\unhbox \voidb@x \hbox {VI-H}}Convert gesture to commands}{13}}
\@writefile{lot}{\contentsline {table}{\numberline {X}{\ignorespaces usecase 7}}{13}}
\newlabel{table_example}{{X}{13}}
\@writefile{toc}{\contentsline {subsection}{\numberline {\unhbox \voidb@x \hbox {VI-I}}Connecting server}{13}}
\@writefile{lot}{\contentsline {table}{\numberline {XI}{\ignorespaces usecase 8}}{13}}
\newlabel{table_example}{{XI}{13}}
\@writefile{toc}{\contentsline {subsection}{\numberline {\unhbox \voidb@x \hbox {VI-J}}Connecting devices}{13}}
\@writefile{lot}{\contentsline {table}{\numberline {XII}{\ignorespaces usecase 9}}{13}}
\newlabel{table_example}{{XII}{13}}
\@writefile{toc}{\contentsline {subsection}{\numberline {\unhbox \voidb@x \hbox {VI-K}}Executing command}{14}}
\@writefile{lot}{\contentsline {table}{\numberline {XIII}{\ignorespaces usecase 10}}{14}}
\newlabel{table_example}{{XIII}{14}}
\@writefile{toc}{\contentsline {subsection}{\numberline {\unhbox \voidb@x \hbox {VI-L}}Usecase Diagram}{14}}
\@writefile{lof}{\contentsline {figure}{\numberline {19}{\ignorespaces Usecase Diagram}}{14}}
\newlabel{Usecase}{{19}{14}}
